-	script	pet#smart	-1,{
OnInit:
	bindatcmd("pet", strnpcinfo(0) +"::OnPet");
	end;
OnPet:
	cutin "pet_1_img", 3;
	sleep2 4000;
	cutin "pet_2_img", 3;
	sleep2 4000;
	cutin "pet_3_img", 3;
	sleep2 4000;
	cutin "pet_4_img", 3;
	sleep2 4000;
	cutin "pet_5_img", 3;
	sleep2 4000;
	cutin "pet_6_img", 3;
	sleep2 4000;
	cutin "pet_7_img", 3;
	sleep2 4000;
	cutin "", 255;
	close;
}