-	script	GM_Login#Smart	-1,{

OnPCLoginEvent:
	
	if( getgmlevel() >= 10 ){
		
		dispbottom "[ Use @salagm para ir diretamente a Sala da Staff SmartRO ].";
		
		atcommand "@hide";
	
		atcommand "@speed 0";
		
		atcommand "@battleignore";
		
		end;

	}
	
	end;

}